<svg width="245" height="200" viewBox="0 0 245 200" fill="none" xmlns="http://www.w3.org/2000/svg">
<path fill-rule="evenodd" clip-rule="evenodd" d="M60.5 40H85.5V50H70.5V65H60.5V40ZM60.5 160H85.5V150H70.5V135H60.5V160ZM160.5 40H185.5V65H175.5V50H160.5V40ZM185.5 160H160.5V150H175.5V135H185.5V160Z" fill="white"/>
<path d="M190.5 100C190.5 100 170.772 145 123 145C75.2283 145 55.5 100 55.5 100C55.5 100 75.579 55 123 55C170.421 55 190.5 100 190.5 100Z" fill="#00D5FF"/>
<ellipse cx="123" cy="100" rx="10" ry="10" fill="white"/>
<path fill-rule="evenodd" clip-rule="evenodd" d="M138.915 93.4454L150.05 74.0295C143.226 66.9237 133.63 62.5 123 62.5C122.394 62.5 121.793 62.5157 121.194 62.5441L138.915 93.4454ZM114.417 63.4882L125.642 83.063H89.5354C94.4723 73.3278 103.531 66.0372 114.417 63.4882ZM159.025 110.444H136.486L154.311 79.361C158.222 85.2812 160.5 92.374 160.5 100C160.5 103.625 159.984 107.128 159.025 110.444ZM131.793 136.461L120.515 116.793H156.536C151.647 126.537 142.638 133.854 131.793 136.461ZM87.0183 89.4121C86.0317 92.7701 85.5 96.3226 85.5 99.9999C85.5 107.6 87.7631 114.67 91.649 120.578L109.522 89.4121H87.0183ZM95.9033 125.922L107.167 106.281L125.039 137.444C124.364 137.481 123.684 137.5 123 137.5C112.346 137.5 102.73 133.057 95.9033 125.922Z" fill="#265ED4"/>
</svg>
